[{
    "types": "polygon",
    "elements": "geometry",
    "tags": {
      "any": [
        "landscape",
        "landcover",
        "park",
        "vegetation"
      ],
      "none": [
        "land"
      ]
    },
    "stylers": [{
      "zoom": [
        0,
        21
      ],
      "lightness": 0.01,
      "saturation": 0.5
    }]
  },
  {
    "types": "polygon",
    "elements": "geometry",
    "tags": {
      "any": [
        "water"
      ]
    },
    "stylers": [{
      "zoom": [
        0,
        21
      ],
      "lightness": -0.2,
      "saturation": 0.2
    }]
  },
  {
    "types": "polygon",
    "elements": "geometry",
    "tags": {
      "any": [
        "medical",
        "cemetery",
        "sports_ground",
        "beach",
        "construction_site"
      ]
    },
    "stylers": [{
      "zoom": [
        0,
        21
      ],
      "lightness": 0
    }]
  },
  {
    "types": "polygon",
    "elements": "geometry",
    "tags": {
      "any": [
        "industrial"
      ]
    },
    "stylers": [{
      "zoom": [
        0,
        21
      ],
      "lightness": 0.05,
      "saturation": 0.5
    }]
  },
  {
    "types": "polygon",
    "elements": "geometry",
    "tags": {
      "any": [
        "transit"
      ]
    },
    "stylers": [{
        "zoom": [
          0,
          14
        ],
        "lightness": 0.1,
        "saturation": 1
      },
      {
        "zoom": [
          15,
          21
        ],
        "lightness": 0.15,
        "opacity": 0.2
      }
    ]
  },
  {
    "types": "polygon",
    "elements": "geometry",
    "tags": {
      "any": [
        "urban_area"
      ],
      "none": [
        "park",
        "medical",
        "industrial",
        "cemetery",
        "sports_ground",
        "beach",
        "construction_site"
      ]
    },
    "stylers": [{
      "visibility": "off"
    }]
  },
  {
    "types": "polygon",
    "elements": "geometry",
    "tags": {
      "any": [
        "urban_area",
        "admin",
        "locality"
      ],
      "none": [
        "park",
        "medical",
        "industrial",
        "cemetery",
        "sports_ground",
        "beach",
        "construction_site"
      ]
    },
    "stylers": [{
      "zoom": [
        16,
        21
      ],
      "lightness": -0.01
    }]
  },
  {
    "types": "polygon",
    "elements": "geometry",
    "tags": {
      "any": [
        "poi"
      ],
      "none": [
        "park"
      ]
    },
    "stylers": {
      "visibility": "off"
    }
  },
  {
    "types": "polygon",
    "elements": "geometry.fill",
    "tags": {
      "any": [
        "building",
        "fence"
      ]
    },
    "stylers": [{
        "zoom": [
          14
        ],
        "visibility": "off"
      },
      {
        "zoom": [
          15
        ],
        "lightness": 0.01,
        "saturation": 0.1
      },
      {
        "zoom": [
          16
        ],
        "lightness": 0.02,
        "saturation": 0.2
      },
      {
        "zoom": [
          17,
          21
        ],
        "lightness": 0.05,
        "saturation": 0.3
      }
    ]
  },
  {
    "types": "polygon",
    "elements": "geometry.outline",
    "tags": {
      "any": [
        "building",
        "fence"
      ]
    },
    "stylers": [{
        "zoom": [
          14,
          15
        ],
        "visibility": "off"
      },
      {
        "zoom": [
          16
        ],
        "lightness": 0,
        "saturation": 0.2,
        "scale": 1.1
      },
      {
        "zoom": [
          17,
          21
        ],
        "saturation": 0.3
      }
    ]
  },
  {
    "types": "point",
    "elements": "label",
    "tags": {
      "any": [
        "admin",
        "landscape"
      ],
      "none": [
        "district"
      ]
    },
    "stylers": {
      "scale": 1.2
    }
  },
  {
    "types": "point",
    "elements": "label",
    "tags": {
      "any": [
        "district"
      ]
    },
    "stylers": {
      "scale": 1,
      "opacity": 0.9
    }
  },
  {
    "types": "polyline",
    "elements": "geometry.fill",
    "tags": {
      "any": [
        "road_1",
        "road_2"
      ]
    },
    "stylers": [{
        "zoom": [
          0,
          15
        ],
        "lightness": 0.2,
        "saturation": 0.8,
        "scale": 1.1
      },
      {
        "zoom": [
          16,
          21
        ],
        "lightness": 0.2,
        "saturation": 0.8,
        "scale": 1.2
      }
    ]
  },
  {
    "types": "polyline",
    "elements": "geometry.outline",
    "tags": {
      "any": [
        "road_1",
        "road_2"
      ]
    },
    "stylers": [{
        "zoom": [
          0,
          15
        ],
        "lightness": -0.1,
        "saturation": 0,
        "scale": 1.1
      },
      {
        "zoom": [
          16,
          21
        ],
        "lightness": -0.1,
        "saturation": 0,
        "scale": 1.25
      }
    ]
  },
  {
    "types": "polyline",
    "elements": "geometry.fill",
    "tags": {
      "any": [
        "road_3",
        "road_4",
        "road_5"
      ]
    },
    "stylers": [{
        "zoom": [
          0,
          11
        ],
        "lightness": 0.2,
        "saturation": 0.8,
        "scale": 1
      },
      {
        "zoom": [
          12,
          15
        ],
        "lightness": 0.2,
        "saturation": 0.8,
        "scale": 1.1
      },
      {
        "zoom": [
          16,
          21
        ],
        "lightness": 0.2,
        "saturation": 0.8,
        "scale": 1.2
      }
    ]
  },
  {
    "types": "polyline",
    "elements": "geometry.fill",
    "tags": {
      "any": [
        "road_6"
      ]
    },
    "stylers": [{
        "zoom": [
          12
        ],
        "lightness": 0.2,
        "saturation": 0.8,
        "scale": 1.1
      },
      {
        "zoom": [
          13,
          15
        ],
        "lightness": 0.2,
        "saturation": 0.8,
        "scale": 1.1
      },
      {
        "zoom": [
          16,
          21
        ],
        "lightness": 0.2,
        "saturation": 0.8,
        "scale": 1.2
      }
    ]
  },
  {
    "types": "polyline",
    "elements": "geometry.outline",
    "tags": {
      "any": [
        "road_3",
        "road_4",
        "road_5",
        "road_6"
      ]
    },
    "stylers": [{
        "zoom": [
          0,
          11
        ],
        "lightness": -0.1,
        "saturation": 0,
        "scale": 1
      },
      {
        "zoom": [
          12,
          15
        ],
        "lightness": -0.1,
        "saturation": 0,
        "scale": 1.05
      },
      {
        "zoom": [
          16,
          21
        ],
        "lightness": -0.1,
        "saturation": 0,
        "scale": 1.25
      }
    ]
  },
  {
    "types": "polyline",
    "elements": "geometry.fill",
    "tags": {
      "all": [
        "is_tunnel"
      ]
    },
    "stylers": [{
        "zoom": [
          13,
          15
        ],
        "lightness": 0.05,
        "saturation": 0.5,
        "scale": 1
      },
      {
        "zoom": [
          16,
          21
        ],
        "lightness": 0.05,
        "saturation": 0.5,
        "scale": 1.2
      }
    ]
  },
  {
    "types": "polyline",
    "elements": "geometry.outline",
    "tags": {
      "all": [
        "is_tunnel"
      ]
    },
    "stylers": [{
        "zoom": [
          13,
          15
        ],
        "lightness": -0.1,
        "saturation": 0,
        "scale": 1
      },
      {
        "zoom": [
          16,
          21
        ],
        "lightness": -0.1,
        "saturation": 0,
        "scale": 1.25
      }
    ]
  },
  {
    "types": "polyline",
    "elements": "geometry.fill",
    "tags": {
      "any": [
        "road_7"
      ]
    },
    "stylers": [{
        "zoom": [
          13
        ],
        "scale": 1,
        "lightness": 0.2,
        "saturation": 0.8
      },
      {
        "zoom": [
          14,
          15
        ],
        "scale": 0.8,
        "lightness": 0.2,
        "saturation": 0.8
      },
      {
        "zoom": [
          16
        ],
        "scale": 0.7,
        "lightness": 0.2,
        "saturation": 0.8
      },
      {
        "zoom": [
          17,
          18
        ],
        "lightness": 0.2,
        "saturation": 0.8,
        "scale": 1
      },
      {
        "zoom": [
          19,
          21
        ],
        "lightness": 0.2,
        "saturation": 0.8,
        "scale": 1.1
      }
    ]
  },
  {
    "types": "polyline",
    "elements": "geometry.fill",
    "tags": {
      "any": [
        "road_limited"
      ]
    },
    "stylers": [{
        "zoom": [
          13
        ],
        "scale": 1,
        "lightness": 0.2,
        "saturation": 0.8
      },
      {
        "zoom": [
          14
        ],
        "scale": 0.8,
        "lightness": 0.2,
        "saturation": 0.8
      },
      {
        "zoom": [
          15,
          16
        ],
        "scale": 0.8,
        "lightness": 0.2,
        "saturation": 0.8
      },
      {
        "zoom": [
          17,
          18
        ],
        "scale": 1,
        "lightness": 0.2,
        "saturation": 0.5
      },
      {
        "zoom": [
          19,
          21
        ],
        "scale": 1.1,
        "lightness": 0.2,
        "saturation": 0.8
      }
    ]
  },
  {
    "types": "polyline",
    "elements": "geometry.outline",
    "tags": {
      "any": [
        "road_7",
        "road_limited"
      ]
    },
    "stylers": [{
        "zoom": [
          14,
          15
        ],
        "scale": 0.8,
        "lightness": 0
      },
      {
        "zoom": [
          16
        ],
        "scale": 0.8,
        "lightness": -0.1,
        "saturation": 0
      },
      {
        "zoom": [
          17,
          18
        ],
        "lightness": -0.1,
        "saturation": 0,
        "scale": 1
      },
      {
        "zoom": [
          19,
          21
        ],
        "lightness": -0.1,
        "saturation": 0,
        "scale": 1.1
      }
    ]
  },
  {
    "types": "polyline",
    "elements": "geometry.fill",
    "tags": {
      "any": [
        "road_minor",
        "road_unclassified"
      ]
    },
    "stylers": [{
        "zoom": [
          14,
          15
        ],
        "scale": 1.2,
        "lightness": 0.2,
        "saturation": 0.8
      },
      {
        "zoom": [
          16
        ],
        "scale": 0.4,
        "lightness": 0.2,
        "saturation": 0.8
      },
      {
        "zoom": [
          17
        ],
        "scale": 0.6,
        "lightness": 0.2,
        "saturation": 0.8
      },
      {
        "zoom": [
          18,
          19
        ],
        "scale": 0.8,
        "lightness": 0.2,
        "saturation": 0.8
      },
      {
        "zoom": [
          20,
          21
        ],
        "scale": 1,
        "lightness": 0.2,
        "saturation": 0.8
      }
    ]
  },
  {
    "types": "polyline",
    "elements": "geometry.outline",
    "tags": {
      "any": [
        "road_minor",
        "road_unclassified"
      ]
    },
    "stylers": [{
        "zoom": [
          14,
          15
        ],
        "scale": 0.3,
        "lightness": -0.1,
        "saturation": 0
      },
      {
        "zoom": [
          16
        ],
        "scale": 0.4,
        "lightness": -0.1,
        "saturation": 0
      },
      {
        "zoom": [
          17
        ],
        "scale": 0.6,
        "lightness": -0.1,
        "saturation": 0
      },
      {
        "zoom": [
          18,
          19
        ],
        "scale": 0.8,
        "lightness": -0.1,
        "saturation": 0
      },
      {
        "zoom": [
          20,
          21
        ],
        "scale": 1,
        "lightness": -0.1,
        "saturation": 0
      }
    ]
  },
  {
    "types": "polyline",
    "elements": "geometry",
    "tags": {
      "any": [
        "path"
      ],
      "none": [
        "structure"
      ]
    },
    "stylers": [{
        "zoom": [
          15,
          16
        ],
        "visibility": "off"
      },
      {
        "zoom": [
          17,
          21
        ],
        "scale": 1,
        "lightness": -0.2,
        "saturation": 0.8
      }
    ]
  },
  {
    "types": "polyline",
    "elements": "geometry",
    "tags": {
      "any": [
        "crosswalk"
      ],
      "none": [
        "structure"
      ]
    },
    "stylers": [{
        "zoom": [
          15,
          16
        ],
        "visibility": "off"
      },
      {
        "zoom": [
          17
        ],
        "scale": 1
      },
      {
        "zoom": [
          18,
          21
        ],
        "scale": 1.2,
        "lightness": 0.2,
        "saturation": 0.8
      }
    ]
  },
  {
    "types": "polyline",
    "tags": {
      "any": [
        "road_construction"
      ]
    },
    "stylers": [{
      "zoom": [
        0,
        21
      ],
      "visibility": "off"
    }]
  },
  {
    "types": "polyline",
    "elements": "label.text.fill",
    "tags": {
      "any": [
        "road"
      ]
    },
    "stylers": [{
        "zoom": [
          0,
          13
        ],
        "scale": 1,
        "lightness": 0.3
      },
      {
        "zoom": [
          14,
          15
        ],
        "scale": 1,
        "lightness": 0.3
      },
      {
        "zoom": [
          16,
          17
        ],
        "scale": 1,
        "lightness": 0.3
      },
      {
        "zoom": [
          18,
          21
        ],
        "scale": 1.2,
        "lightness": 0.3
      }
    ]
  },
  {
    "types": "polyline",
    "elements": "label.text.outline",
    "tags": {
      "any": [
        "road"
      ]
    },
    "stylers": [{
        "zoom": [
          0,
          13
        ],
        "scale": 1,
        "lightness": -0.5
      },
      {
        "zoom": [
          14,
          15
        ],
        "scale": 1,
        "lightness": -0.5
      },
      {
        "zoom": [
          16,
          17
        ],
        "scale": 1,
        "lightness": -0.5
      },
      {
        "zoom": [
          18,
          21
        ],
        "scale": 1.2,
        "lightness": -0.5
      }
    ]
  },
  {
    "types": "polyline",
    "elements": "label.text.fill",
    "tags": {
      "any": [
        "road_7",
        "road_limited",
        "road_unclassified"
      ]
    },
    "stylers": [{
        "zoom": [
          14
        ],
        "scale": 1.1,
        "lightness": 0.3
      },
      {
        "zoom": [
          15,
          17
        ],
        "scale": 1.2,
        "lightness": 0.3
      },
      {
        "zoom": [
          18,
          21
        ],
        "scale": 1.4,
        "lightness": 0.3
      }
    ]
  },
  {
    "types": "polyline",
    "elements": "label.text.outline",
    "tags": {
      "any": [
        "road_7",
        "road_limited",
        "road_unclassified"
      ]
    },
    "stylers": [{
        "zoom": [
          14
        ],
        "scale": 1.1,
        "lightness": -0.5
      },
      {
        "zoom": [
          15,
          17
        ],
        "scale": 1.2,
        "lightness": -0.5
      },
      {
        "zoom": [
          18,
          21
        ],
        "scale": 1.4,
        "lightness": -0.5
      }
    ]
  },
  {
    "types": "point",
    "elements": "label",
    "tags": {
      "any": [
        "road"
      ]
    },
    "stylers": [{
        "zoom": [
          0,
          11
        ],
        "scale": 1.05,
        "lightness": 0.1
      },
      {
        "zoom": [
          12,
          18
        ],
        "scale": 1.15,
        "lightness": 0.1
      },
      {
        "zoom": [
          19,
          21
        ],
        "scale": 1.4,
        "lightness": 0.1
      }
    ]
  },
  {
    "types": "polyline",
    "elements": "geometry.fill.pattern",
    "tags": {
      "any": [
        "road",
        "road_7",
        "road_limited",
        "road_unclassified",
        "road_construction"
      ],
      "none": [
        "road_minor"
      ]
    },
    "stylers": [{
      "zoom": [
        16,
        21
      ],
      "scale": 1.4,
      "lightness": -0.1
    }]
  },
  {
    "types": "polyline",
    "elements": "geometry.fill.pattern",
    "tags": {
      "any": [
        "road_minor"
      ]
    },
    "stylers": [{
      "zoom": [
        18,
        21
      ],
      "scale": 1.2,
      "lightness": -0.1
    }]
  },
  {
    "types": "point",
    "elements": "label.icon",
    "tags": {
      "any": [
        "poi"
      ],
      "none": [
        "park"
      ]
    },
    "stylers": [{
        "zoom": [
          8,
          11
        ],
        "visibility": "off"
      },
      {
        "zoom": [
          12,
          16
        ],
        "scale": 1.1,
        "color": "#3c4873",
        "secondary-color": "#C2C9D9",
        "tertiary-color": "#1C232E"
      },
      {
        "zoom": [
          17,
          21
        ],
        "scale": 1.2,
        "color": "#3C4873",
        "secondary-color": "#C2C9D9",
        "tertiary-color": "#1C232E"
      }
    ]
  },
  {
    "types": "point",
    "elements": "label.text.fill",
    "tags": {
      "any": [
        "poi"
      ],
      "none": [
        "park"
      ]
    },
    "stylers": [{
        "zoom": [
          8,
          11
        ],
        "visibility": "off"
      },
      {
        "zoom": [
          12,
          16
        ],
        "color": "#98a1ba",
        "scale": 1.3
      },
      {
        "zoom": [
          17,
          21
        ],
        "color": "#98a1ba",
        "scale": 1.4
      }
    ]
  },
  {
    "types": "point",
    "elements": "label.text.outline",
    "tags": {
      "any": [
        "poi"
      ],
      "none": [
        "park"
      ]
    },
    "stylers": [{
        "zoom": [
          8,
          11
        ],
        "visibility": "off"
      },
      {
        "zoom": [
          12,
          21
        ],
        "lightness": 0,
        "saturation": -1
      }
    ]
  },
  {
    "types": "point",
    "elements": "label.icon",
    "tags": {
      "any": [
        "park"
      ]
    },
    "stylers": [{
        "zoom": [
          0,
          13
        ],
        "lightness": 0,
        "scale": 1
      },
      {
        "zoom": [
          14,
          16
        ],
        "lightness": 0,
        "scale": 1.1
      },
      {
        "zoom": [
          17,
          21
        ],
        "lightness": 0,
        "scale": 1.2
      }
    ]
  },
  {
    "types": "point",
    "elements": "label.text",
    "tags": {
      "any": [
        "park"
      ]
    },
    "stylers": [{
        "zoom": [
          0,
          13
        ],
        "lightness": 0,
        "scale": 1.1
      },
      {
        "zoom": [
          14,
          16
        ],
        "lightness": 0,
        "scale": 1.3
      },
      {
        "zoom": [
          17,
          21
        ],
        "lightness": 0,
        "scale": 1.4
      }
    ]
  },
  {
    "types": "point",
    "elements": "label.icon",
    "tags": {
      "any": [
        "entrance"
      ]
    },
    "stylers": [{
      "zoom": [
        17,
        21
      ],
      "lightness": 0.1,
      "scale": 1.2
    }]
  },
  {
    "types": "point",
    "elements": "label.text.fill",
    "tags": {
      "any": [
        "entrance"
      ]
    },
    "stylers": [{
      "zoom": [
        17,
        21
      ],
      "color": "#8c8b8b",
      "scale": 1.1
    }]
  },
  {
    "types": "point",
    "elements": "label.text.outline",
    "tags": {
      "any": [
        "entrance"
      ]
    },
    "stylers": [{
      "zoom": [
        17,
        21
      ],
      "scale": 1.1
    }]
  },
  {
    "types": "point",
    "elements": "label.icon",
    "tags": {
      "any": [
        "transit_location",
        "transit"
      ]
    },
    "stylers": [{
        "zoom": [
          0,
          10
        ],
        "scale": 1.05
      },
      {
        "zoom": [
          11,
          21
        ],
        "scale": 1
      }
    ]
  },
  {
    "types": "point",
    "elements": "label.text",
    "tags": {
      "any": [
        "transit_location",
        "transit"
      ]
    },
    "stylers": [{
        "zoom": [
          0,
          11
        ],
        "scale": 1,
        "visibility": "off"
      },
      {
        "zoom": [
          12,
          21
        ],
        "scale": 1,
        "lightness": -0.2
      }
    ]
  },
  {
    "types": "point",
    "elements": "label.icon",
    "tags": {
      "any": [
        "transit_entrance"
      ]
    },
    "stylers": [{
      "zoom": [
        16,
        21
      ],
      "scale": 1.1
    }]
  },
  {
    "types": "point",
    "elements": "label.text",
    "tags": {
      "any": [
        "transit_entrance"
      ]
    },
    "stylers": [{
        "zoom": [
          16
        ],
        "visibility": "off"
      },
      {
        "zoom": [
          17,
          21
        ],
        "scale": 1
      }
    ]
  },
  {
    "types": "point",
    "elements": "label.icon",
    "tags": {
      "all": [
        "transit_stop"
      ],
      "none": [
        "is_unclassified_transit"
      ]
    },
    "stylers": [{
        "zoom": [
          16
        ],
        "scale": 1,
        "visibility": "off"
      },
      {
        "zoom": [
          17,
          21
        ],
        "scale": 1,
        "lightness": 0.1
      }
    ]
  },
  {
    "types": "polyline",
    "elements": "geometry",
    "tags": {
      "any": [
        "transit_schema"
      ]
    },
    "stylers": {
      "visibility": "off"
    }
  },
  {
    "types": "polyline",
    "elements": "geometry.fill",
    "tags": {
      "any": [
        "transit_line"
      ]
    },
    "stylers": [{
        "zoom": [
          9,
          11
        ],
        "visibility": "off"
      },
      {
        "zoom": [
          12,
          13
        ],
        "scale": 1.3,
        "lightness": 0.05
      },
      {
        "zoom": [
          14,
          21
        ],
        "scale": 1.3,
        "lightness": 0.05
      }
    ]
  },
  {
    "types": "point",
    "elements": "label.text.fill",
    "tags": {
      "any": [
        "address"
      ]
    },
    "stylers": [{
        "zoom": [
          0,
          17
        ],
        "visibility": "off"
      },
      {
        "zoom": [
          18,
          21
        ],
        "scale": 1.3
      }
    ]
  },
  {
    "types": "point",
    "elements": "label.text.outline",
    "tags": {
      "any": [
        "address"
      ]
    },
    "stylers": [{
        "zoom": [
          0,
          17
        ],
        "visibility": "off"
      },
      {
        "zoom": [
          18,
          21
        ],
        "scale": 1.3
      }
    ]
  }
]
