[{
    "types": "polygon",
    "elements": "geometry",
    "tags": {
      "any": [
        "landscape",
        "landcover",
        "park"
      ],
      "none": [
        "land"
      ]
    },
    "stylers": [{
        "zoom": [
          0,
          9
        ],
        "opacity": 0.8
      },
      {
        "zoom": [
          10,
          21
        ],
        "opacity": 1
      }
    ]
  },
  {
    "types": "polygon",
    "elements": "geometry",
    "tags": {
      "any": [
        "water"
      ]
    },
    "stylers": [{
      "zoom": [
        0,
        21
      ],
      "saturation": 0.1
    }]
  },
  {
    "types": "polygon",
    "elements": "geometry",
    "tags": {
      "any": [
        "medical",
        "industrial",
        "cemetery",
        "sports_ground",
        "beach",
        "construction_site"
      ]
    },
    "stylers": [{
      "zoom": [
        0,
        21
      ],
      "opacity": 1
    }]
  },
  {
    "types": "polygon",
    "elements": "geometry",
    "tags": {
      "any": [
        "urban_area"
      ],
      "none": [
        "park",
        "medical",
        "industrial",
        "cemetery",
        "sports_ground",
        "beach",
        "construction_site"
      ]
    },
    "stylers": [{
      "visibility": "off"
    }]
  },
  {
    "types": "polygon",
    "elements": "geometry",
    "tags": {
      "any": [
        "poi"
      ],
      "none": [
        "park"
      ]
    },
    "stylers": {
      "visibility": "off"
    }
  },
  {
    "types": "polygon",
    "elements": "geometry",
    "tags": {
      "any": [
        "building",
        "fence"
      ]
    },
    "stylers": [{
      "zoom": [
        17,
        21
      ],
      "lightness": 0,
      "saturation": -0.1,
      "opacity": 0.8
    }]
  },
  {
    "types": "polygon",
    "elements": "geometry.fill",
    "tags": {
      "any": [
        "building",
        "fence"
      ]
    },
    "stylers": [{
        "zoom": [
          14
        ],
        "visibility": "off"
      },
      {
        "zoom": [
          15,
          21
        ],
        "saturation": -0.1,
        "opacity": 0.8
      }
    ]
  },
  {
    "types": "polygon",
    "elements": "geometry.outline",
    "tags": {
      "any": [
        "building",
        "fence"
      ]
    },
    "stylers": [{
        "zoom": [
          14,
          15
        ],
        "visibility": "off"
      },
      {
        "zoom": [
          16
        ],
        "saturation": -0.2,
        "scale": 1.1
      },
      {
        "zoom": [
          17,
          21
        ],
        "lightness": 0,
        "saturation": -0.1
      }
    ]
  },
  {
    "types": "point",
    "elements": "label",
    "tags": {
      "any": ["admin", "landscape"],
      "none": ["district"]
    },
    "stylers": {
      "scale": 1.2
    }
  },
  {
    "types": "point",
    "elements": "label",
    "tags": {
      "any": ["district"]
    },
    "stylers": {
      "scale": 1,
      "opacity": 0.9
    }
  },
  {
    "types": "polyline",
    "elements": "geometry.fill",
    "tags": {
      "all": [
        "road"
      ],
      "none": [
        "road_7",
        "road_limited",
        "road_unclassified",
        "road_construction"
      ]
    },
    "stylers": [{
        "zoom": [
          0,
          12
        ],
        "lightness": -0.1,
        "saturation": -1,
        "scale": 1
      },
      {
        "zoom": [
          13,
          16
        ],
        "lightness": -0.15,
        "saturation": -1,
        "scale": 1
      },
      {
        "zoom": [
          17,
          21
        ],
        "lightness": -0.15,
        "saturation": -1,
        "scale": 1.2
      }
    ]
  },
  {
    "types": "polyline",
    "elements": "geometry.outline",
    "tags": {
      "all": [
        "road"
      ],
      "none": [
        "road_7",
        "road_limited",
        "road_unclassified",
        "road_construction"
      ]
    },
    "stylers": [{
        "zoom": [
          0,
          16
        ],
        "lightness": -0.18,
        "saturation": -1,
        "scale": 1
      },
      {
        "zoom": [
          17,
          21
        ],
        "lightness": -0.2,
        "saturation": -1,
        "scale": 1.25
      }
    ]
  },
  {
    "types": "polyline",
    "elements": "geometry.fill",
    "tags": {
      "all": [
        "is_tunnel"
      ]
    },
    "stylers": [{
        "zoom": [
          13,
          16
        ],
        "lightness": -0.01,
        "saturation": -1,
        "scale": 1
      },
      {
        "zoom": [
          17,
          21
        ],
        "lightness": -0.01,
        "saturation": -1,
        "scale": 1.2
      }
    ]
  },
  {
    "types": "polyline",
    "elements": "geometry.outline",
    "tags": {
      "all": [
        "is_tunnel"
      ]
    },
    "stylers": [{
        "zoom": [
          13,
          16
        ],
        "lightness": -0.15,
        "saturation": -1,
        "scale": 1
      },
      {
        "zoom": [
          17,
          21
        ],
        "lightness": -0.2,
        "saturation": -1,
        "scale": 1.25
      }
    ]
  },
  {
    "types": "polyline",
    "elements": "geometry.fill",
    "tags": {
      "any": [
        "road_7",
        "road_limited",
        "road_unclassified",
        "road_construction"
      ]
    },
    "stylers": [{
        "zoom": [
          13
        ],
        "scale": 1,
        "lightness": -0.2,
        "saturation": -1
      },
      {
        "zoom": [
          14,
          15
        ],
        "scale": 0.8,
        "color": "#DBDBDB"
      },
      {
        "zoom": [
          16
        ],
        "scale": 0.8,
        "color": "#CFCFCF"
      },
      {
        "zoom": [
          17, 18
        ],
        "color": "#CFCFCF",
        "scale": 1
      },
      {
        "zoom": [
          19,
          21
        ],
        "color": "#CFCFCF",
        "scale": 1.1
      }
    ]
  },
  {
    "types": "polyline",
    "elements": "geometry.outline",
    "tags": {
      "any": [
        "road_7",
        "road_limited",
        "road_unclassified",
        "road_construction"
      ]
    },
    "stylers": [{
        "zoom": [
          14,
          15
        ],
        "scale": 0.8,
        "lightness": 0
      },
      {
        "zoom": [
          16
        ],
        "scale": 0.8,
        "lightness": -0.15
      },
      {
        "zoom": [
          17, 18
        ],
        "lightness": -0.15,
        "scale": 1
      },
      {
        "zoom": [
          19,
          21
        ],
        "lightness": -0.15,
        "scale": 1.1
      }
    ]
  },
  {
    "types": "polyline",
    "elements": "geometry.fill.pattern",
    "tags": {
      "any": [
        "road",
        "road_7",
        "road_limited",
        "road_unclassified",
        "road_construction"
      ]
    },
    "stylers": [{
      "zoom": [
        16,
        21
      ],
      "color": "#808080",
      "scale": 1.2
    }]
  },
  {
    "types": "polyline",
    "elements": "geometry.fill",
    "tags": {
      "any": [
        "road_minor"
      ]
    },
    "stylers": [{
        "zoom": [
          16,
          17
        ],
        "scale": 0.6,
        "color": "#CFCFCF"
      },
      {
        "zoom": [
          18,
          21
        ],
        "scale": 1,
        "color": "#CFCFCF",
        "lightness": 0
      }
    ]
  },
  {
    "types": "polyline",
    "elements": "geometry.outline",
    "tags": {
      "any": [
        "road_minor"
      ]
    },
    "stylers": [{
        "zoom": [
          16,
          17
        ],
        "scale": 0.6,
        "lightness": 0.2
      },
      {
        "zoom": [
          18,
          21
        ],
        "scale": 1.1,
        "lightness": 0
      }
    ]
  },
  {
    "types": "polyline",
    "elements": "geometry",
    "tags": {
      "any": [
        "path"
      ],
      "none": [
        "structure"
      ]
    },
    "stylers": [{
        "zoom": [
          15,
          16
        ],
        "visibility": "off"
      },
      {
        "zoom": [
          17,
          21
        ],
        "scale": 1,
        "lightness": 0
      }
    ]
  },
  {
    "types": "polyline",
    "elements": "geometry",
    "tags": {
      "any": [
        "crosswalk"
      ],
      "none": [
        "structure"
      ]
    },
    "stylers": [{
        "zoom": [
          15,
          16
        ],
        "visibility": "off"
      },
      {
        "zoom": [
          17
        ],
        "scale": 1
      },
      {
        "zoom": [
          18,
          21
        ],
        "scale": 1.2,
        "lightness": -0.1
      }
    ]
  },
  {
    "types": "polyline",
    "elements": "label",
    "tags": {
      "any": [
        "road"
      ]
    },
    "stylers": [{
        "zoom": [
          14,
          15
        ],
        "scale": 1.2,
        "lightness": 0.1
      },
      {
        "zoom": [
          16,
          17
        ],
        "scale": 1.2
      },
      {
        "zoom": [
          18,
          21
        ],
        "scale": 1.4
      }
    ]
  },
  {
    "types": "polyline",
    "elements": "label",
    "tags": {
      "any": [
        "road_7",
        "road_limited",
        "road_unclassified",
        "road_construction"
      ]
    },
    "stylers": [{
        "zoom": [
          14,
          15
        ],
        "scale": 1.2,
        "lightness": 0.1
      },
      {
        "zoom": [
          16,
          17
        ],
        "scale": 1.4
      },
      {
        "zoom": [
          18,
          21
        ],
        "scale": 1.6
      }
    ]
  },
  {
    "types": "point",
    "elements": "label",
    "tags": {
      "any": [
        "road"
      ]
    },
    "stylers": [{
        "zoom": [
          0,
          14
        ],
        "scale": 1.1
      },
      {
        "zoom": [
          15,
          21
        ],
        "scale": 1.4
      }
    ]
  },
  {
    "types": "point",
    "elements": "label.icon",
    "tags": {
      "any": [
        "poi"
      ],
      "none": [
        "park"
      ]
    },
    "stylers": [{
        "zoom": [
          8,
          11
        ],
        "visibility": "off"
      },
      {
        "zoom": [
          12,
          16
        ],
        "lightness": 0,
        "scale": 0.9,
        "saturation": -1
      },
      {
        "zoom": [
          17,
          21
        ],
        "lightness": 0,
        "scale": 1,
        "saturation": -1
      }
    ]
  },
  {
    "types": "point",
    "elements": "label.text",
    "tags": {
      "any": [
        "poi"
      ],
      "none": [
        "park"
      ]
    },
    "stylers": [{
        "zoom": [
          8,
          11
        ],
        "visibility": "off"
      },
      {
        "zoom": [
          12,
          16
        ],
        "lightness": 0.1,
        "scale": 1,
        "saturation": -1
      },
      {
        "zoom": [
          17,
          21
        ],
        "lightness": 0.1,
        "scale": 1.1,
        "saturation": -1
      }
    ]
  },
  {
    "types": "point",
    "elements": "label.icon",
    "tags": {
      "any": [
        "park"
      ]
    },
    "stylers": [{
        "zoom": [
          0,
          16
        ],
        "lightness": 0,
        "scale": 0.9
      },
      {
        "zoom": [
          17,
          21
        ],
        "lightness": 0,
        "scale": 1
      }
    ]
  },
  {
    "types": "point",
    "elements": "label.text",
    "tags": {
      "any": [
        "park"
      ]
    },
    "stylers": [{
      "scale": 1.2
    }]
  },
  {
    "types": "polygon",
    "elements": "geometry",
    "tags": {
      "any": [
        "transit"
      ]
    },
    "stylers": [{
      "zoom": [
        10,
        21
      ],
      "saturation": 1,
      "lightness": -0.02
    }]
  },
  {
    "types": "point",
    "elements": "label.icon",
    "tags": {
      "any": [
        "traffic_light"
      ]
    },
    "stylers": [{
        "zoom": [
          17
        ],
        "scale": 1.2
      },
      {
        "zoom": [
          18,
          21
        ],
        "scale": 1.4
      }
    ]
  },
  {
    "types": "point",
    "elements": "label.icon",
    "tags": {
      "any": [
        "transit_location",
        "transit"
      ]
    },
    "stylers": [{
        "zoom": [
          0,
          12
        ],
        "scale": 1.1
      },
      {
        "zoom": [
          13,
          21
        ],
        "scale": 1
      }
    ]
  },
  {
    "types": "point",
    "elements": "label.text",
    "tags": {
      "any": [
        "transit_location",
        "transit"
      ]
    },
    "stylers": [{
        "zoom": [
          0,
          13
        ],
        "scale": 1,
        "visibility": "off"
      },
      {
        "zoom": [
          14,
          21
        ],
        "scale": 1
      }
    ]
  },
  {
    "types": "point",
    "elements": "label.icon",
    "tags": {
      "any": [
        "transit_entrance"
      ]
    },
    "stylers": [{
      "zoom": [
        16,
        21
      ],
      "scale": 1.1
    }]
  },
  {
    "types": "point",
    "elements": "label.text",
    "tags": {
      "any": [
        "transit_entrance"
      ]
    },
    "stylers": [{
        "zoom": [
          16
        ],
        "visibility": "off"
      },
      {
        "zoom": [
          17,
          21
        ],
        "scale": 1
      }
    ]
  },
  {
    "types": "point",
    "elements": "label.icon",
    "tags": {
      "all": [
        "transit_stop"
      ],
      "none": [
        "is_unclassified_transit"
      ]
    },
    "stylers": [{
        "zoom": [
          16
        ],
        "scale": 1,
        "visibility": "off"
      },
      {
        "zoom": [
          17,
          21
        ],
        "scale": 0.9,
        "lightness": 0.1
      }
    ]
  },
  {
    "types": "polyline",
    "elements": "geometry",
    "tags": {
      "any": [
        "transit_schema"
      ]
    },
    "stylers": {
      "visibility": "off"
    }
  },
  {
    "types": "polyline",
    "elements": "geometry.fill",
    "tags": {
      "any": [
        "transit_line"
      ]
    },
    "stylers": [{
        "zoom": [
          9,
          11
        ],
        "visibility": "off"
      },
      {
        "zoom": [
          12,
          13
        ],
        "scale": 1.2,
        "lightness": -0.05
      },
      {
        "zoom": [
          14,
          21
        ],
        "scale": 1.6,
        "lightness": -0.05
      }
    ]
  },
  {
    "types": "point",
    "elements": "label.text.fill",
    "tags": {
      "any": [
        "address"
      ]
    },
    "stylers": [{
        "zoom": [
          0,
          16
        ],
        "visibility": "off"
      },
      {
        "zoom": [
          17,
          21
        ],
        "scale": 1.2
      }
    ]
  },
  {
    "types": "point",
    "elements": "label.text.outline",
    "tags": {
      "any": [
        "address"
      ]
    },
    "stylers": [{
        "zoom": [
          0,
          16
        ],
        "visibility": "off"
      },
      {
        "zoom": [
          17,
          21
        ],
        "scale": 1.2
      }
    ]
  }
]
