[
  {
    "featureType": "transport.line",
    "stylers": {
      "visibility": "on",
      "opacity": 1,
      "saturation": 0.1,
      "scale": 1.6
    }
  },
  {
    "featureType": "transport.line.transport_l.mkzhd_0",
    "stylers": {
      "visibility": "on",
      "opacity": 1,
      "scale": 0.9
    }
  },
  {
    "featureType": "label.transport",
    "zoomSlices": [{
        "zooms": "0-13",
        "stylers": {
          "scale": 1.12
        }
      },
      {
        "zooms": "13-14",
        "stylers": {
          "scale": 1.08
        }
      },
      {
        "zooms": "14-18",
        "stylers": {
          "scale": 1.1
        }
      },
      {
        "zooms": "18-22",
        "stylers": {
          "scale": 1.11
        }
      }
    ]
  },
  {
    "featureType": "label.transport.station.bus",
    "zoomSlices": [{
        "zooms": "15-16",
        "stylers": {
          "visibility": "on",
          "lightness": 0.1,
          "scale": 0.65
        }
      },
      {
        "zooms": "16-17",
        "stylers": {
          "scale": 1.35
        }
      },
      {
        "zooms": "17-18",
        "stylers": {
          "scale": 1.45
        }
      },
      {
        "zooms": "18-22",
        "stylers": {
          "scale": 1.11
        }
      }
    ]
  },
  {
    "featureType": "road",
    "zoomSlices": [{
        "zooms": "0-10",
        "stylers": {
          "visibility": "on",
          "color": "#E3E3E3",
          "outline-color": "#BDBBBB",
          "scale": 0.85
        }
      },
      {
        "zooms": "10-15",
        "stylers": {
          "color": "#ededed",
          "outline-color": "#BDBBBB",
          "scale": 0.85
        }
      },
      {
        "zooms": "15-22",
        "stylers": {
          "color": "#ededed",
          "outline-color": "#BDBBBB",
          "scale": 0.85
        }
      }
    ]
  },
  {
    "featureType": "road.class10_0",
    "stylers": {
      "color": "#ffffff"
    }
  },
  {
    "featureType": "road.class10_park",
    "stylers": {
      "color": "#BDBBBB",
      "scale": 0.5
    }
  },
  {
    "featureType": "road.class10_park_0",
    "stylers": {
      "color": "#BDBBBB",
      "scale": 0.5
    }
  },
  {
    "featureType": "road.class10_park_1",
    "stylers": {
      "color": "#BDBBBB",
      "scale": 0.5
    }
  },
  {
    "featureType": "road.class10_park_2",
    "stylers": {
      "color": "#BDBBBB",
      "scale": 0.5
    }
  },
  {
    "featureType": "road.class10_park_3",
    "stylers": {
      "color": "#BDBBBB",
      "scale": 0.5
    }
  },
  {
    "featureType": "road.local.pedestrian",
    "stylers": {
      "color": "#FCFAFA",
      "scale": 0.5
    }
  },
  {
    "featureType": "road.local.pedestrian.road_0",
    "stylers": {
      "color": "#BDBBBB",
      "opacity": 1,
      "outline-color": "rgba(255, 255, 255, 0)",
      "scale": 0.5
    }
  },
  {
    "featureType": "road.local.pedestrian.road",
    "stylers": {
      "color": "#BDBBBB",
      "opacity": 1,
      "outline-color": "rgba(255, 255, 255, 0)",
      "scale": 0.5
    }
  },
  {
    "featureType": "road.local.pedestrian.road.class7_pedestrian_dash_0",
    "stylers": {
      "color": "#BDBBBB",
      "scale": 0.5
    }
  },
  {
    "featureType": "road.local.pedestrian.road.class7_dense_0",
    "stylers": {
      "color": "#BDBBBB",
      "scale": 0.5
    }

  },
  {
    "featureType": "road.local.pedestrian.road.class7_dense_dash_0",
    "stylers": {
      "color": "#BDBBBB",
      "scale": 0.5
    }

  },
  {
    "featureType": "road.local.pedestrian.road.class7_pedestrian_copy_copy_0",
    "stylers": {
      "color": "#ffffff",
      "scale": 0.5
    }
  },
  {
    "featureType": "road.local.pedestrian.road.class7_pedestrian_copy_copy_1",
    "stylers": {
      "color": "#ffffff",
      "scale": 0.5
    }
  },
  {
    "featureType": "road.local.pedestrian.road.class7_pedestrian_copy_copy_2",
    "stylers": {
      "color": "#ffffff",
      "scale": 0.5
    }
  },
  {
    "featureType": "road.local.pedestrian.road.class10_pedestrian_0",
    "stylers": {
      "color": "#BDBBBB",
      "scale": 0.5
    }
  },

  {
    "featureType": "road.local.pedestrian.road.class10_pedestrian_1",
    "stylers": {
      "color": "#BDBBBB",
      "scale": 0.5
    }
  },
  {
    "featureType": "road.local.pedestrian.road.class10_pedestrian_BG_0",
    "stylers": {
      "scale": 0.8,
      "lightness": 0.3
    }
  },
  {
    "featureType": "road.local.pedestrian.road.class10_pedestrian_BG_1",
    "stylers": {
      "scale": 0.8,
      "lightness": 0.3
    }
  },
  {
    "featureType": "road.local.bike.road.class10_bike_0",
    "stylers": {
      "color": "#9c89fa",
      "scale": 0.9
    }
  },
  {
    "featureType": "nonauto.road.railway_0",
    "zoomSlices": [{
        "zooms": "0-13",
        "stylers": {
          "visibility": "on",
          "color": "#A8A6B3",
          "scale": 0.9
        }
      },
      {
        "zooms": "13-22",
        "stylers": {
          "scale": 1.2,
          "color": "#A8A6B3"
        }
      }
    ]
  },
  {
    "featureType": "nonauto.road.arrows_0",
    "zoomSlices": [{
        "zooms": "15-17",
        "stylers": {
          "visibility": "off"
        }
      },
      {
        "zooms": "17-22",
        "stylers": {
          "lightness": 0.5
        }
      }
    ]
  },
  {
    "featureType": "nonauto.road.arrows_1",
    "zoomSlices": [{
        "zooms": "15-17",
        "stylers": {
          "visibility": "off"
        }
      },
      {
        "zooms": "17-22",
        "stylers": {
          "lightness": 0.5
        }
      }
    ]
  },
  {
    "featureType": "nonauto.road.arrows_2",
    "zoomSlices": [{
        "zooms": "15-17",
        "stylers": {
          "visibility": "off"
        }
      },
      {
        "zooms": "17-22",
        "stylers": {
          "lightness": 0.5
        }
      }
    ]
  },
  {
    "featureType": "nonauto.road.arrows_3",
    "zoomSlices": [{
        "zooms": "15-17",
        "stylers": {
          "visibility": "off"
        }
      },
      {
        "zooms": "17-22",
        "stylers": {
          "lightness": 0.5
        }
      }
    ]
  },
  {
    "featureType": "nonauto.road.tram_0",
    "stylers": {
      "lightness": 0.2,
      "visibility": "on",
      "scale": 1.1
    }
  },
  {
    "featureType": "nonauto.road.stairs_0",
    "zooms": "0-16",
    "stylers": {
      "visibility": "off"
    }
  },
  {
    "featureType": "nonauto.road.stairs_0",
    "zooms": "16-22",
    "stylers": {
      "scale": 0.9,
      "color": "#BDBBBB"
    }
  },
  {
    "featureType": "nonauto.road.piste_0",
    "stylers": {
      "color": "#BDBBBB"
    }
  },
  {
    "featureType": "nonauto.road.crosswalk_0",
    "zooms": "14-17",
    "stylers": {
      "visibility": "off"
    }
  },
  {
    "featureType": "nonauto.road.crosswalk_0",
    "zooms": "17-20",
    "stylers": {
      "visibility": "on"
    }
  },
  {
    "featureType": "roadnet_p",
    "stylers": {
      "visibility": "off"
    }
  },

  {
    "featureType": "label.road.marker",
    "stylers": {
      "visibility": "off"
    }
  },
  {
    "featureType": "label.road.trafficlight.roadnet_p.traffic_light_0",
    "stylers": {
      "visibility": "off"
    }
  },
  {
    "featureType": "roadnet_a.bridge_0",
    "stylers": {
      "visibility": "on",
      "color": "#FCFAFA"
    }
  },
  {
    "featureType": "urban-area.landuse_a",
    "zoomSlices": [{
        "zooms": "10-14",
        "stylers": {
          "visibility": "off"
        }
      },
      {
        "zooms": "14-22",
        "stylers": {
          "opacity": 0.8,
          "visibility": "off"
        }
      }
    ]
  },
  {
    "featureType": "urban-area.landuse_a.med_0",
    "zooms": "14-22",
    "stylers": {
      "visibility": "on",
      "opacity": 0.8,
      "color": "#FFF2F2"
    }
  },
  {
    "featureType": "urban-area.landuse_a.urban-industrial_0",
    "zooms": "14-22",
    "stylers": {
      "visibility": "on",
      "opacity": 0.5,
      "color": "#F1F0F1"
    }
  },
  {
    "featureType": "urban-area.landuse_a.urban-under-construction_0",
    "zooms": "14-22",
    "stylers": {
      "visibility": "on",
      "opacity": 0.5,
      "color": "#F1F0F1"
    }
  },
  {
    "featureType": "urban-area.landuse_a.sportground_0",
    "stylers": {
      "visibility": "on"
    }
  },
  {
    "featureType": "urban-area.landuse_a.cemetery_0",
    "stylers": {
      "visibility": "on",
      "color": "#dff0ce"
    }
  },
  {
    "featureType": "urban-area.landuse_a.sport_0",
    "stylers": {
      "visibility": "off"
    }
  },
  {
    "featureType": "urban-area.landuse_a.garbage_0",
    "stylers": {
      "visibility": "off"
    }
  },
  {
    "featureType": "urban-area.landuse_a.urban-residential_0",
    "stylers": {
      "visibility": "off"
    }
  },

  {
    "featureType": "building.bld_industrial_0",
    "zoomSlices": [{
        "zooms": "14-15",
        "stylers": {
          "saturation": -0.5,
          "lightness": 0.15,
          "opacity": 0.6
        }
      },
      {
        "zooms": "15-22",
        "stylers": {
          "saturation": -0.5,
          "lightness": 0.15
        }
      }
    ]
  },
  {
    "featureType": "building.bld_stroy_0",
    "zoomSlices": [{
        "zooms": "14-15",
        "stylers": {
          "saturation": -0.5,
          "opacity": 0.6,
          "lightness": 0.15
        }
      },
      {
        "zooms": "15-22",
        "stylers": {
          "saturation": -0.5,
          "lightness": 0.15
        }
      }
    ]
  },

  {
    "featureType": "building.bld_residental_3D_0",
    "zoomSlices": [{
        "zooms": "14-15",
        "stylers": {
          "saturation": -0.4,
          "opacity": 0.8
        }
      },
      {
        "zooms": "15-22",
        "stylers": {
          "saturation": -0.4
        }
      }
    ]
  },
  {
    "featureType": "building.bld_industrial_3D_0",
    "zoomSlices": [{
        "zooms": "14-15",
        "stylers": {
          "saturation": -0.5,
          "opacity": 0.6,
          "lightness": 0.15
        }
      },
      {
        "zooms": "15-22",
        "stylers": {
          "saturation": -0.5,
          "lightness": 0.15
        }
      }
    ]
  },
  {
    "featureType": "building.bld_stroy_3D_0",
    "zoomSlices": [{
        "zooms": "14-15",
        "stylers": {
          "saturation": -0.5,
          "opacity": 0.6,
          "lightness": 0.15
        }
      },
      {
        "zooms": "15-22",
        "stylers": {
          "saturation": -0.5,
          "lightness": 0.15
        }
      }
    ]
  },
  {
    "featureType": "poi",
    "zoomSlices": [{
        "zooms": "8-13",
        "stylers": {
          "visibility": "off"
        }
      },
      {
        "zooms": "13-22",
        "stylers": {
          "lightness": 0.1,
          "scale": 0.9,
          "saturation": -1
        }
      }
    ]
  },
  {
    "featureType": "poi.veget_label_0",
    "zooms": "8-22",
    "stylers": {
      "lightness": 0,
      "scale": 0.9,
      "saturation": 0
    }
  },
  {
    "featureType": "hydro_a_label",
    "stylers": {
      "scale": 0.8
    }
  },
  {
    "featureType": "hydro.hydro_l.hydro_l_label_0",
    "stylers": {
      "scale": 0.8
    }
  },
  {
    "featureType": "hydro.hydro_l.hydro_l_0",
    "stylers": {
      "scale": 0.8
    }
  }
]
