[{
    "types": "point",
    "elements": "label",
    "tags": {
      "any": [
        "admin",
        "landscape"
      ],
      "none": [
        "district"
      ]
    },
    "stylers": {
      "lightness": 0.2
    }
  },
  {
    "types": "point",
    "elements": "label",
    "tags": {
      "any": [
        "district"
      ]
    },
    "stylers": {
      "opacity": 0.8
    }
  },
  {
    "types": "point",
    "elements": "label",
    "tags": {
      "any": [
        "address"
      ]
    },
    "stylers": [{
        "zoom": [
          0,
          17
        ],
        "visibility": "off"
      },
      {
        "zoom": [
          18,
          21
        ],
        "lightness": 0.2
      }
    ]
  },
  {
    "types": "polyline",
    "elements": "label",
    "tags": {
      "any": [
        "road"
      ]
    },
    "stylers": {
      "scale": 0.9,
      "lightness": 0.2
    }
  },
  {
    "types": "point",
    "elements": "label",
    "tags": {
      "any": [
        "poi"
      ]
    },
    "stylers": [{
      "zoom": [
        0,
        21
      ],
      "lightness": 0.2
    }]
  },
  {
    "types": "point",
    "elements": "label",
    "tags": {
      "all": [
        "transit_stop"
      ]
    },
    "stylers": [{
      "zoom": [
        0,
        21
      ],
      "lightness": 0.2
    }]
  },
  {
    "types": "polyline",
    "elements": "geometry",
    "tags": {
      "any": [
        "transit_schema"
      ]
    },
    "stylers": {
      "visibility": "off"
    }
  }
]
